<?xml version="1.0" encoding="UTF-8" standalone="no"?>
<!-- Created with Inkscape (http://www.inkscape.org/) -->

<svg
   width="512"
   height="512"
   viewBox="0 0 135.46667 135.46667"
   version="1.1"
   id="svg5"
   inkscape:export-filename="bitmap.svg"
   inkscape:export-xdpi="96"
   inkscape:export-ydpi="96"
   xmlns:inkscape="http://www.inkscape.org/namespaces/inkscape"
   xmlns:sodipodi="http://sodipodi.sourceforge.net/DTD/sodipodi-0.dtd"
   xmlns="http://www.w3.org/2000/svg"
   xmlns:svg="http://www.w3.org/2000/svg">
  <sodipodi:namedview
     id="namedview7"
     pagecolor="#ffffff"
     bordercolor="#000000"
     borderopacity="0.25"
     inkscape:showpageshadow="2"
     inkscape:pageopacity="0.0"
     inkscape:pagecheckerboard="false"
     inkscape:deskcolor="#d1d1d1"
     inkscape:document-units="px"
     showgrid="false"
     inkscape:lockguides="false">
    <inkscape:grid
       type="xygrid"
       id="grid7988"
       originx="0"
       originy="0" />
  </sodipodi:namedview>
  <defs
     id="defs2">
    <rect
       x="238.00511"
       y="169.92807"
       width="337.54785"
       height="205.7364"
       id="rect7196" />
  </defs>
  <g
     inkscape:label="Layer 1"
     inkscape:groupmode="layer"
     id="layer1"
     style="stroke-width:1.00013;stroke-dasharray:none">
    <rect
       style="fill:#010101;fill-opacity:1;stroke:#000000;stroke-width:3.175;stroke-linejoin:bevel;stroke-dasharray:none;stroke-opacity:1"
       id="rect7986"
       width="122.62613"
       height="0.16783863"
       x="6.4202704"
       y="103.02976"
       ry="0.083919317" />
    <rect
       style="fill:none;fill-opacity:1;stroke:#000000;stroke-width:3.175;stroke-linejoin:bevel;stroke-dasharray:none;stroke-opacity:1"
       id="rect9442"
       width="116.06448"
       height="63.338329"
       x="9.7010927"
       y="32.269066"
       ry="14.675879"
       inkscape:label="rect9442" />
    <text
       xml:space="preserve"
       transform="matrix(0.36841348,0,0,0.35566859,-67.697639,-27.229492)"
       id="text7194"
       style="font-style:normal;font-variant:normal;font-weight:200;font-stretch:normal;font-size:144px;font-family:'Source Code Pro';-inkscape-font-specification:'Source Code Pro Ultra-Light';white-space:pre;shape-inside:url(#rect7196);fill:#ffffff;fill-opacity:1;stroke:#000000;stroke-width:2.92369;stroke-linejoin:bevel;stroke-dasharray:none;stroke-opacity:1"><tspan
         x="238.00586"
         y="295.92773"
         id="tspan14196"><tspan
           style="fill:#010101"
           id="tspan14194">&lt;/&gt;</tspan></tspan></text>
  </g>
</svg>
